﻿{
  "profiles": {
    "Web": {
      "commandName": "Project",
      "launchBrowser": true,
      "applicationUrl": "https://localhost:5001;http://localhost:5000",
      "environmentVariables": {
        "ASPNETCORE_ENVIRONMENT": "Development",
        "APP_DB_CONNSTRING": "Data Source=127.0.0.1,1433;Initial Catalog=wargaming_db;User ID=SA;Password=P@ssw0rd"
      }
    }
  }
}